{
  "formatVersion": 1,
  "database": {
    "version": 1,
    "identityHash": "cc50cf8f4ecf8d4f294b4d947fe451f4",
    "entities": [
      {
        "tableName": "tasks",
        "createSql": "CREATE TABLE IF NOT EXISTS `${TABLE_NAME}` (`id` INTEGER PRIMARY KEY AUTOINCREMENT NOT NULL, `depends` TEXT, `description` TEXT, `due` TEXT, `end` TEXT, `project` TEXT, `start` TEXT, `tags` TEXT, `until` TEXT)",
        "fields": [
          {
            "fieldPath": "id",
            "columnName": "id",
            "affinity": "INTEGER",
            "notNull": true
          },
          {
            "fieldPath": "depends",
            "columnName": "depends",
            "affinity": "TEXT",
            "notNull": false
          },
          {
            "fieldPath": "description",
            "columnName": "description",
            "affinity": "TEXT",
            "notNull": false
          },
          {
            "fieldPath": "due",
            "columnName": "due",
            "affinity": "TEXT",
            "notNull": false
          },
          {
            "fieldPath": "end",
            "columnName": "end",
            "affinity": "TEXT",
            "notNull": false
          },
          {
            "fieldPath": "project",
            "columnName": "project",
            "affinity": "TEXT",
            "notNull": false
          },
          {
            "fieldPath": "start",
            "columnName": "start",
            "affinity": "TEXT",
            "notNull": false
          },
          {
            "fieldPath": "tags",
            "columnName": "tags",
            "affinity": "TEXT",
            "notNull": false
          },
          {
            "fieldPath": "until",
            "columnName": "until",
            "affinity": "TEXT",
            "notNull": false
          }
        ],
        "primaryKey": {
          "columnNames": [
            "id"
          ],
          "autoGenerate": true
        },
        "indices": [],
        "foreignKeys": []
      }
    ],
    "setupQueries": [
      "CREATE TABLE IF NOT EXISTS room_master_table (id INTEGER PRIMARY KEY,identity_hash TEXT)",
      "INSERT OR REPLACE INTO room_master_table (id,identity_hash) VALUES(42, \"cc50cf8f4ecf8d4f294b4d947fe451f4\")"
    ]
  }
}